text	speaker
More importantly, was I any good?	Chandler
....with??	Chandler
Oh, what can happen? I mean, would you… 	Chandler
 May I?	Chandler
You mind if I…	Chandler
Oh, well... Maybe we could... 	Chandler
They...do that?	Chandler
 Was that another question?	Chandler
And...?	Chandler
 Were you there?	Chandler
Then what?	Chandler
I don't know. Maybe.	Chandler
You want it?	Chandler
Something else I might have said?	Chandler
You think I should?	Chandler
So what was it for anyway?	Chandler
Do you?	Chandler
Please?	Chandler
What about it?	Chandler
Ok, how about this ?	Chandler
Do we have to?	Chandler
 Look, if you did...	Chandler
 Next time?	Chandler
Like what?	Chandler
He is?	Chandler
Could you want her more?	Chandler
Yeah, so, what's that supposed to mean?!	Chandler
What???	Chandler
Aren't you...?	Chandler
I said, Like what?	Chandler
So, are we going in there?	Chandler
What question?	Chandler
Well, can I just…	Chandler
Anything?	Chandler
Yeah okay. Well, what’s the next little bit?	Chandler
And?	Chandler
If that.	Chandler
 Well, what is it?	Chandler
So, that’s it?	Chandler
Ohh, so?	Chandler
So what does this mean?	Chandler
Too?	Chandler
But are you sure you can do this?	Chandler
Again?!	Chandler
What do you mean?	Chandler
It’s happened to you?	Chandler
Is that a problem?	Chandler
WHAT IS IT?!	Chandler
They do?	Chandler
So what are you going to do?	Chandler
So?!	Chandler
So, what are you gonna do?	Chandler
How come?	Chandler
Well, what’d you do?	Chandler
What are you going to do?	Chandler
 Okay, what do I do?	Chandler
Do you know which one you're gonna be?	Chandler
Say again?	Chandler
How do you know?!	Chandler
So what are you gonna do?	Chandler
 It is?	Chandler
 What... did you get me there?	Chandler
So uh, what are you in for?	Chandler
How is that me?	Chandler
Again?	Chandler
Well, either that or uh…	Chandler
So, what do you think?	Chandler
Uh, what was that?	Chandler
Excuse me?	Chandler
At this?!	Chandler
 So?	Chandler
So?	Chandler
How is that ever going to happen?!	Chandler
You think?	Chandler
Well maybe there is one thing you can do.	Chandler
By me?	Chandler
Like?	Chandler
They do me?	Chandler
You-you do?	Chandler
Could I play?	Chandler
Does it matter?!	Chandler
Yeah, you think so, well? Should I ask him?	Chandler
I do? 	Chandler
What am I supposed to do with these?	Chandler
What are we gonna do?	Chandler
What?! What-what is it?!	Chandler
Do you wanna?	Chandler
Hey, look, what do you want from me?	Chandler
What, what, what?!	Chandler
You sure?	Chandler
 What? What? What?	Chandler
Hey, Rach, can I get...	Chandler
I don’t know. Should we try it?	Chandler
What?	Chandler
 What?	Chandler
What’s it about?	Chandler
Is it on?	Chandler
Maybe not even then. 	Chandler
Again, what?!	Chandler
Seriously, where did this happen?	Chandler
 How you doin?	Joey
 How you doin'?	Joey
 How you doin’?	Joey
 So uh, how you doin’?	Joey
Okay!  How you doin'?	Joey
How ya doin’?	Joey
Hey,  how you doin’?	Joey
 Hey, how you doin’?	Joey
How're you doing?	Joey
How are you doing?	Joey
Oh, I do.  How you doin?	Joey
Hey! How you doin’?	Joey
Yeah! How you doin'? Yeah alright!	Joey
Hey, so how is it?	Joey
How is it you?	Joey
Oh! How's it going?	Joey
Wow! So, how are you?	Joey
Hey!  How’s it going?	Joey
How’s she doing?	Joey
What are you doing?	Joey
 How’s that going?	Joey
How do you mean?	Joey
Well, how-how come?	Joey
 What the hell are you doin'???	Joey
Come on in, how are ya?	Joey
What, what are you doing? What are you doing?	Joey
how come?	Joey
Eh, what are you gonna do?	Joey
How'd you get to that?	Joey
Yeah, what are ya gonna do?	Joey
Oh. What do you do?	Joey
What the hell are you doin'?	Joey
So uh, what are you guys doing?	Joey
What are you gonna do?	Joey
So what are you gonna do?	Joey
You're gonna do it?	Joey
What’s goin’ on?	Joey
How do you think she's doing?	Joey
What are you ah, what are you gonna do?	Joey
What did they do?	Joey
Wow! How do you know how to do that?!	Joey
 Hey buddy! How’s it going?	Joey
 Ah, are you okay?	Joey
You do?	Joey
Yeah. You okay?	Joey
Uhh do it?	Joey
How’d it go?	Joey
Monica, how are you gonna do that?	Joey
So what're you going to do?	Joey
Where are you gettin’ this?	Joey
Yeah, what’ going on?	Joey
Hey, what are you guys gonna do?	Joey
Yeah uh, what am I gonna do?	Joey
What's happenin'?	Joey
Oooh, what you got there?	Joey
 Can you tell me how this happened?	Joey
So what's it gonna be? 	Joey
Are you all right?	Joey
How do you figure?	Joey
Are you going to do it?	Joey
Hey-hey, what’s going on?	Joey
What happened?	Joey
Just okay—Did you do it right?!	Joey
And you’re Okay with that?	Joey
Hey! Are you okay?	Joey
Yeah, what’s that about?	Joey
What’s going on?	Joey
Really? I can do it?	Joey
Yeah. What are we getting?	Joey
Well what am I supposed to do?	Joey
Hey, what’s up?	Joey
Hey, what’s up? 	Joey
But what does that gonna do...	Joey
Probably wanna know what I'm doing…?	Joey
Yeah, what were you trying to get her to do?!	Joey
 What do you need?	Joey
Duh, where've you been?	Joey
Yeah, what-what's going on?	Joey
What’s up?	Joey
You guys okay?	Joey
Oh-whoa-hey, dude, what are you doing?!	Joey
All right so, so what do I do?	Joey
Well, what’s it called?	Joey
Oh,  you do, do you?	Joey
Yeah, what's that like?	Joey
You?	Joey
What's going on?	Joey
 What's going on?	Joey
What do you mean?	Joey
Hey! What’s going on?	Joey
You could?	Joey
Is everything okay?	Joey
Oh and , okay?	Joey
Hey! Where have you been?	Joey
 huh-huh?	Joey
Oh God! So what do we do?	Joey
What happened? What happened?	Joey
And we're okay?	Joey
Guess what?	Joey
How?! When?!	Joey
I KNOW!	Monica
I know! 	Monica
I know!! 	Monica
I know!!	Monica
I know! I know.	Monica
I know.	Monica
 I know.	Monica
 I know! I know! I know!	Monica
I know 	Monica
 I know!!!	Monica
I know!!!	Monica
I know I do.	Monica
Yeah, I knew.	Monica
Yeah, I do know.	Monica
Yeah, I'm sure.	Monica
Sure!	Monica
Yeah I am!	Monica
Okay, well I do know you.	Monica
Yeah, sure.	Monica
Absolutely.	Monica
I know why!	Monica
Yes! Exactly.	Monica
Sure! Got to!	Monica
 I understand.	Monica
Yeah, definitely.	Monica
I'm there!	Monica
Yes I am!!	Monica
Yes I do!	Monica
Yeah, definitely!	Monica
Of course!	Monica
Of course! 	Monica
Sure.	Monica
Oh yeah. Definitely.	Monica
We sure are.	Monica
Of course.	Monica
Yes, it was!	Monica
I got it!	Monica
I got it! 	Monica
I'll be right there!	Monica
Yeah! Oh yes!	Monica
Ohh, of course we are! 	Monica
I got it.	Monica
We are there!	Monica
I do.	Monica
I am!! 	Monica
Ohh, absolutely.	Monica
I'm on it!	Monica
Yeah that’s right.	Monica
Oh yeah right there!	Monica
Absolutely!	Monica
...Yeah. Yeah, I do.	Monica
Yes, we are. 	Monica
Yes!	Monica
 Yes!	Monica
YES! 	Monica
Yes! 	Monica
 That's right.	Monica
That's it. 	Monica
Yeah!	Monica
Yeah! 	Monica
Yeah! Do that!	Monica
All right!	Monica
Yes!!	Monica
Well, I do.	Monica
Oh yeah!	Monica
Okay-okay, I got it. I got it.	Monica
That’s right.	Monica
Ok, you got it!	Monica
I heard that!	Monica
Yeah, we really do!	Monica
I got it!!	Monica
You know!	Monica
Well... obviously!	Monica
Oh yeah right! 	Monica
Yes.	Monica
 Yes.	Monica
That's all right.	Monica
Yes it's true.	Monica
Yeah, it did.	Monica
Ah, yeah!	Monica
Yeah right.	Monica
Yeah, me too.	Monica
I did.	Monica
All right.	Monica
All right. 	Monica
 Yeah.	Monica
Yeah. 	Monica
Yeah.	Monica
Yeah, right.	Monica
Yeah, me too! 	Monica
That's me.	Monica
Yeah, right!	Monica
It was.	Monica
I'll get it. 	Monica
Yes, you did!	Monica
Totally!	Monica
Everybody knows!	Monica
Oh, y'know..	Monica
Yeah, yeah.	Monica
All right then.	Monica
Hi.	Ross
 Hi.	Ross
Hi. 	Ross
Hi .	Ross
 Hi!	Ross
Hi! 	Ross
Hi!	Ross
Oh hi!	Ross
Hi there!	Ross
.....Hi.	Ross
Hey! Hi!	Ross
Hi! It’s me.	Ross
 Hello!	Ross
Hello!	Ross
Hey	Ross
 Hello.	Ross
Hello.	Ross
Hello!!	Ross
Uh, hello!	Ross
 Hey.	Ross
Hey. 	Ross
Hey.	Ross
 Hello! Hello!	Ross
Okay!  Hey!	Ross
Hey!	Ross
 Hey!	Ross
Hey! 	Ross
 HEY!	Ross
 Hello?	Ross
**  Hey!	Ross
Well. Hey…	Ross
Hey, come on in.	Ross
Wow!	Ross
 WOW!	Ross
Wow.	Ross
 Wow.	Ross
Hey...	Ross
Great! Well umm…	Ross
Uh-ah!	Ross
 Hey, hey!!	Ross
Oh, come in.	Ross
Wow, hello! You look great!	Ross
Great!	Ross
Oh, good!	Ross
Oh, great!	Ross
Oh great! 	Ross
 Yeah-uh!	Ross
Wow! Yeah!	Ross
Amazing!	Ross
Come on! That’s great.	Ross
Come here.	Ross
Really? That's great!	Ross
Wow, it really is!	Ross
Huh!	Ross
Oh, yeah, hello, well, now, here I am.	Ross
Oh, hey...	Ross
Hey, this-  Heyy...	Ross
Awesome!	Ross
 Really!	Ross
Come here  Oh! There she is! Hi!	Ross
Yes?	Ross
...Gets interrupted. Hi!	Ross
Good call!	Ross
Yep!	Ross
Yep?	Ross
Hey! What's up?	Ross
Huh. Wow, this is great.	Ross
Hi guys.	Ross
Excellent!	Ross
Ahh.	Ross
Hey! What’s up?	Ross
 Here!	Ross
Looking up?	Ross
 Okay!!	Ross
Okay! 	Ross
 Okay!	Ross
Okay!	Ross
Here 	Ross
Oh-ooh!	Ross
Oh come on!!	Ross
Oh!	Ross
Oh! 	Ross
Yes!	Ross
Uh.	Ross
 Well uh…	Ross
 Hey, here’s a thought.	Ross
Hi Whitney.	Ross
Hi roomie! 	Ross
Great.	Ross
Ah!  Oh.	Ross
Ohh!	Ross
Yeeeah! 	Ross
Sure, what’s up?	Ross
Come on.	Ross
Come on. 	Ross
Good! That’s good!	Ross
Uh-huh. 	Ross
Uh-huh.	Ross
Hi. She said yes.	Ross
Wow! Really?!	Ross
Ohh, no. 	Phoebe
Oh no.	Phoebe
 Oh no.	Phoebe
Ohh! No.	Phoebe
Oh no!	Phoebe
No!	Phoebe
 No!	Phoebe
No! 	Phoebe
No!!	Phoebe
No, no. No.	Phoebe
No, no...	Phoebe
No.	Phoebe
Oh, no. Oh, nothing.	Phoebe
Okay.  Oh, no!	Phoebe
Well...  no.	Phoebe
No...	Phoebe
Oh, then no.	Phoebe
 No-no!! No!!	Phoebe
No 	Phoebe
 No	Phoebe
Okay.  Oh! Oh no.	Phoebe
No, nothing.	Phoebe
Well you don’t.	Phoebe
I don’t have it!	Phoebe
Nope.	Phoebe
Nope. 	Phoebe
No, sorry.	Phoebe
Oh, it's not!	Phoebe
Oh stop it.	Phoebe
No I didn’t!	Phoebe
Noo!	Phoebe
Neither.	Phoebe
No, it did not.	Phoebe
Not yet, no. 	Phoebe
No you didn’t.	Phoebe
No I’m not! You are!	Phoebe
No you didn't!	Phoebe
No, you?	Phoebe
 Stop it!	Phoebe
No, not a thing.	Phoebe
Well, I don't...	Phoebe
Never.	Phoebe
I don’t....	Phoebe
...Oh crap!	Phoebe
Nothing. Nothing.	Phoebe
But they’re not!	Phoebe
I, umm, shut up!	Phoebe
No, look, don't touch that!	Phoebe
Oh. No. No. Good! Yeah, me neither.	Phoebe
 That's not good.	Phoebe
Nooo!!	Phoebe
No, I do not hear that.	Phoebe
No, we hate that.	Phoebe
Uh, I don’t think so!	Phoebe
No! Why?	Phoebe
No one’s here!  Oh damnit!	Phoebe
Ohh! I did not get that.	Phoebe
I can’t!!	Phoebe
No it's not, sorry.	Phoebe
No, why?	Phoebe
 Dumbass!	Phoebe
No, whatever! Anything!	Phoebe
Okay.  Yeah, no they don’t do that.	Phoebe
 Ok, say no more.	Phoebe
No, don’t look directly at them!	Phoebe
leave…	Phoebe
Oh, that's fine, no.	Phoebe
Yes. Well, that's neither here nor there.	Phoebe
Oh. Aw, forget it.	Phoebe
Yeah, no, I understand.	Phoebe
No.  Neither is mine.	Phoebe
 .... or no.	Phoebe
You can't do that!	Phoebe
 That's off, right?	Phoebe
Oh no, we have to!	Phoebe
Holy crap!	Phoebe
 But you obviously haven't.	Phoebe
 I’m not asking!	Phoebe
No. Why?	Phoebe
I don’t know.  Me neither.	Phoebe
ok I can't do this.	Phoebe
 Shut it down.	Phoebe
Oh no! Why?	Phoebe
Nothing!  This is not over!	Phoebe
Oh no!  Oh! Wow!!!	Phoebe
Ooh, it's not a toy.	Phoebe
Oh sure!  Noo!	Phoebe
Not after this!	Phoebe
Oh you don’t know.	Phoebe
Ohh, that’s too bad!	Phoebe
Oh!  All right.  Now, let's not do this!	Phoebe
Ok, you weren't there.	Phoebe
Umm, it’s negative.	Phoebe
 Ohh.	Phoebe
Ohh.	Phoebe
No, we're late!	Phoebe
The end.	Phoebe
Oh, that sucks!	Phoebe
No, Joey.	Phoebe
Yeah, I actually don’t know...	Phoebe
No!!	Rachel
Oh no!	Rachel
No..!	Rachel
No, no, no!	Rachel
Oh! Oh, no!	Rachel
No! No-no-no…	Rachel
 Oh no…	Rachel
Oh no-no-no…	Rachel
Well no.	Rachel
No.	Rachel
No. 	Rachel
 No.	Rachel
Oh no-no-no-no, no!	Rachel
No! Not at all!	Rachel
No. No.	Rachel
No! Nothing!	Rachel
Oh no no no	Rachel
Ew! No!	Rachel
No?	Rachel
No...	Rachel
No, what?	Rachel
No it’s not!	Rachel
Nope! 	Rachel
No....	Rachel
No you don’t!	Rachel
Noo.	Rachel
No. No, you can’t.	Rachel
Oh stop that!	Rachel
No, I don’t.	Rachel
 That would be no.	Rachel
 No you don’t.	Rachel
I don't!	Rachel
Well neither do I!	Rachel
Oh. Oh wait no.	Rachel
Absolutely not.	Rachel
No, one of them...	Rachel
Don’t!! 	Rachel
Oh.  Stop it!	Rachel
Nooo!	Rachel
No, I’m not.	Rachel
No. I...	Rachel
 Nooo...	Rachel
No, I'm saying...	Rachel
Oh well, no I…	Rachel
You don't.	Rachel
Really, really not.	Rachel
No, I don’t see it!	Rachel
Nothing!	Rachel
Eh! Stop it!	Rachel
Oh yeah, no, what’s that?	Rachel
No reason.	Rachel
Don’t do that.	Rachel
I’m really, really not.	Rachel
Well um, I don’t.	Rachel
None.	Rachel
Shut up!	Rachel
Noooo.	Rachel
Oh crap!	Rachel
Ohhhh, I cannot look at it! 	Rachel
Shut up.	Rachel
No. Have you?	Rachel
I don’t see it!	Rachel
I didn’t!	Rachel
No!  You bitch!	Rachel
That’s not true! 	Rachel
No. Sorry.	Rachel
Oh don’t even ask!	Rachel
I did not!	Rachel
You shut up!	Rachel
That is neither here nor there.	Rachel
No! Don’t say that! Don’t say that!	Rachel
Stop picturing it!!	Rachel
No we…	Rachel
Nothing.	Rachel
Nothing. 	Rachel
Nothing...	Rachel
...I really don't... 	Rachel
Nothing! You go!	Rachel
Well, not this second!	Rachel
Yeah, umm, no honey.	Rachel
Get off.	Rachel
No! Really, no, please, please, that’s, that’s okay.	Rachel
There isn't. There is totally isn't.	Rachel
No, I'm just....	Rachel
What? I-I don't.	Rachel
Yeah, me neither. Yet…	Rachel
I can’t!	Rachel
Oh! It's not good.	Rachel
Nobody.	Rachel
No awareness.	Rachel
You know? Forget it!	Rachel
Phoebe no!	Rachel
 Nothing?	Rachel
Not right now.	Rachel
 No, no, not at the moment, no, I'm not. Are you?	Rachel
I’m thinkin’ no.	Rachel
What?!! Stop it! Stop it! Oh my God!	Rachel
You don’t even know!	Rachel
No. Why?	Rachel
No, not yet.	Rachel
