\relax 
\providecommand\hyper@newdestlabel[2]{}
\providecommand\HyperFirstAtBeginDocument{\AtBeginDocument}
\HyperFirstAtBeginDocument{\ifx\hyper@anchor\@undefined
\global\let\oldcontentsline\contentsline
\gdef\contentsline#1#2#3#4{\oldcontentsline{#1}{#2}{#3}}
\global\let\oldnewlabel\newlabel
\gdef\newlabel#1#2{\newlabelxx{#1}#2}
\gdef\newlabelxx#1#2#3#4#5#6{\oldnewlabel{#1}{{#2}{#3}}}
\AtEndDocument{\ifx\hyper@anchor\@undefined
\let\contentsline\oldcontentsline
\let\newlabel\oldnewlabel
\fi}
\fi}
\global\let\hyper@last\relax 
\gdef\HyperFirstAtBeginDocument#1{#1}
\providecommand\HyField@AuxAddToFields[1]{}
\providecommand\HyField@AuxAddToCoFields[2]{}
\@writefile{nav}{\headcommand {\slideentry {0}{0}{1}{1/1}{}{0}}}
\@writefile{nav}{\headcommand {\beamer@framepages {1}{1}}}
\@writefile{toc}{\beamer@sectionintoc {1}{Task}{2}{0}{1}}
\@writefile{nav}{\headcommand {\beamer@sectionpages {1}{1}}}
\@writefile{nav}{\headcommand {\beamer@subsectionpages {1}{1}}}
\@writefile{nav}{\headcommand {\sectionentry {1}{Task}{2}{Task}{0}}}
\@writefile{nav}{\headcommand {\slideentry {1}{0}{1}{2/3}{}{0}}}
\@writefile{nav}{\headcommand {\beamer@framepages {2}{3}}}
\@writefile{toc}{\beamer@sectionintoc {2}{Related work}{4}{0}{2}}
\@writefile{nav}{\headcommand {\beamer@sectionpages {2}{3}}}
\@writefile{nav}{\headcommand {\beamer@subsectionpages {2}{3}}}
\@writefile{nav}{\headcommand {\sectionentry {2}{Related work}{4}{Related work}{0}}}
\@writefile{nav}{\headcommand {\slideentry {2}{0}{1}{4/4}{}{0}}}
\@writefile{nav}{\headcommand {\beamer@framepages {4}{4}}}
\@writefile{toc}{\beamer@sectionintoc {3}{Dataset}{5}{0}{3}}
\@writefile{nav}{\headcommand {\beamer@sectionpages {4}{4}}}
\@writefile{nav}{\headcommand {\beamer@subsectionpages {4}{4}}}
\@writefile{nav}{\headcommand {\sectionentry {3}{Dataset}{5}{Dataset}{0}}}
\@writefile{nav}{\headcommand {\slideentry {3}{0}{1}{5/5}{}{0}}}
\@writefile{nav}{\headcommand {\beamer@framepages {5}{5}}}
\@writefile{toc}{\beamer@sectionintoc {4}{The system}{6}{0}{4}}
\@writefile{nav}{\headcommand {\beamer@sectionpages {5}{5}}}
\@writefile{nav}{\headcommand {\beamer@subsectionpages {5}{5}}}
\@writefile{nav}{\headcommand {\sectionentry {4}{The system}{6}{The system}{0}}}
\@writefile{nav}{\headcommand {\slideentry {4}{0}{1}{6/6}{}{0}}}
\@writefile{nav}{\headcommand {\beamer@framepages {6}{6}}}
\@writefile{toc}{\beamer@sectionintoc {5}{Evaluation}{7}{0}{5}}
\@writefile{nav}{\headcommand {\beamer@sectionpages {6}{6}}}
\@writefile{nav}{\headcommand {\beamer@subsectionpages {6}{6}}}
\@writefile{nav}{\headcommand {\sectionentry {5}{Evaluation}{7}{Evaluation}{0}}}
\@writefile{nav}{\headcommand {\slideentry {5}{0}{1}{7/7}{}{0}}}
\@writefile{nav}{\headcommand {\beamer@framepages {7}{7}}}
\@writefile{nav}{\headcommand {\slideentry {5}{0}{2}{8/8}{}{0}}}
\@writefile{nav}{\headcommand {\beamer@framepages {8}{8}}}
\@writefile{nav}{\headcommand {\slideentry {5}{0}{3}{9/9}{}{0}}}
\@writefile{nav}{\headcommand {\beamer@framepages {9}{9}}}
\@writefile{nav}{\headcommand {\slideentry {5}{0}{4}{10/10}{}{0}}}
\@writefile{nav}{\headcommand {\beamer@framepages {10}{10}}}
\@writefile{nav}{\headcommand {\slideentry {5}{0}{5}{11/11}{}{0}}}
\@writefile{nav}{\headcommand {\beamer@framepages {11}{11}}}
\@writefile{nav}{\headcommand {\beamer@partpages {1}{11}}}
\@writefile{nav}{\headcommand {\beamer@subsectionpages {7}{11}}}
\@writefile{nav}{\headcommand {\beamer@sectionpages {7}{11}}}
\@writefile{nav}{\headcommand {\beamer@documentpages {11}}}
\@writefile{nav}{\headcommand {\gdef \inserttotalframenumber {10}}}
\gdef \@abspage@last{11}
