\beamer@sectionintoc {1}{Task}{2}{0}{1}
\beamer@sectionintoc {2}{Related work}{4}{0}{2}
\beamer@sectionintoc {3}{Dataset}{5}{0}{3}
\beamer@sectionintoc {4}{The system}{6}{0}{4}
\beamer@sectionintoc {5}{Evaluation}{7}{0}{5}
