\relax 
\citation{hazen2003integration}
\citation{mairesse2007using}
\citation{campbell2006support}
\citation{ma2017text}
\newlabel{tab:dataset}{{1}{2}}
\newlabel{par}{{2.1.1.}{2}}
\newlabel{sec:eval}{{3.}{2}}
\newlabel{eq:auto}{{1}{2}}
\newlabel{eq:scale}{{2}{2}}
\bibstyle{tar2020}
\bibdata{tar2020}
\bibcite{campbell2006support}{\citename {Campbell \bgroup et al.\egroup }2006}
\bibcite{hazen2003integration}{\citename {Hazen \bgroup et al.\egroup }2003}
\bibcite{ma2017text}{\citename {Ma \bgroup et al.\egroup }2017}
\bibcite{mairesse2007using}{\citename {Mairesse \bgroup et al.\egroup }2007}
\newlabel{fig:cmtest}{{1}{4}}
\newlabel{fig:cmphrtrain}{{2}{4}}
\newlabel{fig:cmphrtest}{{3}{4}}
\newlabel{tab:cv}{{2}{4}}
\newlabel{fig:box}{{4}{4}}
\newlabel{tab:stats}{{3}{4}}
\gdef \@abspage@last{4}
